%TF.GenerationSoftware,KiCad,Pcbnew,(6.0.4)*%
%TF.CreationDate,2022-03-24T14:14:13+01:00*%
%TF.ProjectId,glow_pcb,676c6f77-5f70-4636-922e-6b696361645f,rev?*%
%TF.SameCoordinates,Original*%
%TF.FileFunction,Soldermask,Top*%
%TF.FilePolarity,Negative*%
%FSLAX46Y46*%
G04 Gerber Fmt 4.6, Leading zero omitted, Abs format (unit mm)*
G04 Created by KiCad (PCBNEW (6.0.4)) date 2022-03-24 14:14:13*
%MOMM*%
%LPD*%
G01*
G04 APERTURE LIST*
G04 Aperture macros list*
%AMRoundRect*
0 Rectangle with rounded corners*
0 $1 Rounding radius*
0 $2 $3 $4 $5 $6 $7 $8 $9 X,Y pos of 4 corners*
0 Add a 4 corners polygon primitive as box body*
4,1,4,$2,$3,$4,$5,$6,$7,$8,$9,$2,$3,0*
0 Add four circle primitives for the rounded corners*
1,1,$1+$1,$2,$3*
1,1,$1+$1,$4,$5*
1,1,$1+$1,$6,$7*
1,1,$1+$1,$8,$9*
0 Add four rect primitives between the rounded corners*
20,1,$1+$1,$2,$3,$4,$5,0*
20,1,$1+$1,$4,$5,$6,$7,0*
20,1,$1+$1,$6,$7,$8,$9,0*
20,1,$1+$1,$8,$9,$2,$3,0*%
G04 Aperture macros list end*
%ADD10RoundRect,0.250000X0.450000X-0.350000X0.450000X0.350000X-0.450000X0.350000X-0.450000X-0.350000X0*%
%ADD11R,0.850000X1.600000*%
%ADD12R,1.600000X0.850000*%
%ADD13RoundRect,0.250000X0.070711X-0.565685X0.565685X-0.070711X-0.070711X0.565685X-0.565685X0.070711X0*%
%ADD14RoundRect,0.150000X-0.512500X-0.150000X0.512500X-0.150000X0.512500X0.150000X-0.512500X0.150000X0*%
%ADD15R,1.700000X1.700000*%
%ADD16O,1.700000X1.700000*%
G04 APERTURE END LIST*
D10*
%TO.C,C3*%
X125000000Y-98000000D03*
X125000000Y-96000000D03*
%TD*%
%TO.C,C2*%
X132100000Y-103250000D03*
X132100000Y-101250000D03*
%TD*%
D11*
%TO.C,D4*%
X121075000Y-101600000D03*
X122825000Y-101600000D03*
X122825000Y-98100000D03*
X121075000Y-98100000D03*
%TD*%
D12*
%TO.C,D3*%
X130200000Y-92325000D03*
X130200000Y-94075000D03*
X126700000Y-94075000D03*
X126700000Y-92325000D03*
%TD*%
D11*
%TO.C,D2*%
X135975000Y-101450000D03*
X134225000Y-101450000D03*
X134225000Y-97950000D03*
X135975000Y-97950000D03*
%TD*%
D12*
%TO.C,D1*%
X126950000Y-107175000D03*
X126950000Y-105425000D03*
X130450000Y-105425000D03*
X130450000Y-107175000D03*
%TD*%
D13*
%TO.C,C1*%
X132492893Y-95607107D03*
X133907107Y-94192893D03*
%TD*%
D14*
%TO.C,U1*%
X122612500Y-103550000D03*
X122612500Y-104500000D03*
X122612500Y-105450000D03*
X124887500Y-105450000D03*
X124887500Y-104500000D03*
X124887500Y-103550000D03*
%TD*%
D15*
%TO.C,J1*%
X129800000Y-97250000D03*
D16*
X127260000Y-97250000D03*
X129800000Y-99790000D03*
X127260000Y-99790000D03*
X129800000Y-102330000D03*
X127260000Y-102330000D03*
%TD*%
M02*
